\relax 
\providecommand\hyper@newdestlabel[2]{}
\providecommand\HyperFirstAtBeginDocument{\AtBeginDocument}
\HyperFirstAtBeginDocument{\ifx\hyper@anchor\@undefined
\global\let\oldcontentsline\contentsline
\gdef\contentsline#1#2#3#4{\oldcontentsline{#1}{#2}{#3}}
\global\let\oldnewlabel\newlabel
\gdef\newlabel#1#2{\newlabelxx{#1}#2}
\gdef\newlabelxx#1#2#3#4#5#6{\oldnewlabel{#1}{{#2}{#3}}}
\AtEndDocument{\ifx\hyper@anchor\@undefined
\let\contentsline\oldcontentsline
\let\newlabel\oldnewlabel
\fi}
\fi}
\global\let\hyper@last\relax 
\gdef\HyperFirstAtBeginDocument#1{#1}
\providecommand\HyField@AuxAddToFields[1]{}
\providecommand\HyField@AuxAddToCoFields[2]{}
\@writefile{toc}{\contentsline {section}{\numberline {1}Introduction}{2}{section.1}\protected@file@percent }
\@writefile{toc}{\contentsline {section}{\numberline {2}N-Armed Bandit}{2}{section.2}\protected@file@percent }
\@writefile{toc}{\contentsline {subsection}{\numberline {2.1}Exercise 1.1}{2}{subsection.2.1}\protected@file@percent }
\@writefile{toc}{\contentsline {subsubsection}{\numberline {2.1.1}Cumulative reward average over time}{2}{subsubsection.2.1.1}\protected@file@percent }
\@writefile{lof}{\contentsline {figure}{\numberline {1}{\ignorespaces The cumulative reward average over time for the different selection methods.}}{3}{figure.1}\protected@file@percent }
\newlabel{fig:1cumul}{{1}{3}{The cumulative reward average over time for the different selection methods}{figure.1}{}}
\@writefile{toc}{\contentsline {subsubsection}{\numberline {2.1.2}Mean value per arm}{3}{subsubsection.2.1.2}\protected@file@percent }
\@writefile{lof}{\contentsline {figure}{\numberline {2}{\ignorespaces The actual $Q_{a_i}$ estimate over time compared to the mean $Q_{a_i}^*$ for the first arm.}}{4}{figure.2}\protected@file@percent }
\newlabel{fig:1_arm1}{{2}{4}{The actual $Q_{a_i}$ estimate over time compared to the mean $Q_{a_i}^*$ for the first arm}{figure.2}{}}
\@writefile{lof}{\contentsline {figure}{\numberline {3}{\ignorespaces The actual $Q_{a_i}$ estimate over time compared to the mean $Q_{a_i}^*$ for the second arm.}}{4}{figure.3}\protected@file@percent }
\newlabel{fig:1_arm2}{{3}{4}{The actual $Q_{a_i}$ estimate over time compared to the mean $Q_{a_i}^*$ for the second arm}{figure.3}{}}
\@writefile{lof}{\contentsline {figure}{\numberline {4}{\ignorespaces The actual $Q_{a_i}$ estimate over time compared to the mean $Q_{a_i}^*$ for the third arm.}}{5}{figure.4}\protected@file@percent }
\newlabel{fig:1_arm3}{{4}{5}{The actual $Q_{a_i}$ estimate over time compared to the mean $Q_{a_i}^*$ for the third arm}{figure.4}{}}
\@writefile{lof}{\contentsline {figure}{\numberline {5}{\ignorespaces The actual $Q_{a_i}$ estimate over time compared to the mean $Q_{a_i}^*$ for the fourth arm.}}{6}{figure.5}\protected@file@percent }
\newlabel{fig:1_arm4}{{5}{6}{The actual $Q_{a_i}$ estimate over time compared to the mean $Q_{a_i}^*$ for the fourth arm}{figure.5}{}}
\@writefile{toc}{\contentsline {subsubsection}{\numberline {2.1.3}Amount of action selections}{6}{subsubsection.2.1.3}\protected@file@percent }
\@writefile{lof}{\contentsline {figure}{\numberline {6}{\ignorespaces The amount of times the arms have been individually pulled for action selection strategy random.}}{7}{figure.6}\protected@file@percent }
\newlabel{fig:1hrandom}{{6}{7}{The amount of times the arms have been individually pulled for action selection strategy random}{figure.6}{}}
\@writefile{lof}{\contentsline {figure}{\numberline {7}{\ignorespaces The amount of times the arms have been individually pulled for action selection strategy greedy with $\epsilon $ = 0.}}{7}{figure.7}\protected@file@percent }
\newlabel{fig:1hgreedy0}{{7}{7}{The amount of times the arms have been individually pulled for action selection strategy greedy with $\epsilon $ = 0}{figure.7}{}}
\@writefile{lof}{\contentsline {figure}{\numberline {8}{\ignorespaces The amount of times the arms have been individually pulled for action selection strategy greedy with $\epsilon $ = 0.1.}}{8}{figure.8}\protected@file@percent }
\newlabel{fig:1hgreedy01}{{8}{8}{The amount of times the arms have been individually pulled for action selection strategy greedy with $\epsilon $ = 0.1}{figure.8}{}}
\@writefile{lof}{\contentsline {figure}{\numberline {9}{\ignorespaces The amount of times the arms have been individually pulled for action selection strategy greedy with $\epsilon $ = 0.2.}}{8}{figure.9}\protected@file@percent }
\newlabel{fig:1hgreedy02}{{9}{8}{The amount of times the arms have been individually pulled for action selection strategy greedy with $\epsilon $ = 0.2}{figure.9}{}}
\@writefile{lof}{\contentsline {figure}{\numberline {10}{\ignorespaces The amount of times the arms have been individually pulled for action selection strategy softmax with $\tau $ = 1.}}{9}{figure.10}\protected@file@percent }
\newlabel{fig:1softmax1}{{10}{9}{The amount of times the arms have been individually pulled for action selection strategy softmax with $\tau $ = 1}{figure.10}{}}
\@writefile{lof}{\contentsline {figure}{\numberline {11}{\ignorespaces The amount of times the arms have been individually pulled for action selection strategy softmax with $\tau $ = 0.1.}}{9}{figure.11}\protected@file@percent }
\newlabel{fig:1softmax01}{{11}{9}{The amount of times the arms have been individually pulled for action selection strategy softmax with $\tau $ = 0.1}{figure.11}{}}
\@writefile{toc}{\contentsline {subsection}{\numberline {2.2}Exercise 1.2}{9}{subsection.2.2}\protected@file@percent }
\@writefile{toc}{\contentsline {subsubsection}{\numberline {2.2.1}Cumulative reward average over time}{10}{subsubsection.2.2.1}\protected@file@percent }
\@writefile{lof}{\contentsline {figure}{\numberline {12}{\ignorespaces The cumulative reward average over time for the different selection methods.}}{10}{figure.12}\protected@file@percent }
\newlabel{fig:cumul}{{12}{10}{The cumulative reward average over time for the different selection methods}{figure.12}{}}
\@writefile{toc}{\contentsline {subsubsection}{\numberline {2.2.2}Mean value per arm}{10}{subsubsection.2.2.2}\protected@file@percent }
\@writefile{lof}{\contentsline {figure}{\numberline {13}{\ignorespaces The actual $Q_{a_i}$ estimate over time compared to the mean $Q_{a_i}^*$ for the first arm.}}{11}{figure.13}\protected@file@percent }
\newlabel{fig:arm1}{{13}{11}{The actual $Q_{a_i}$ estimate over time compared to the mean $Q_{a_i}^*$ for the first arm}{figure.13}{}}
\@writefile{lof}{\contentsline {figure}{\numberline {14}{\ignorespaces The actual $Q_{a_i}$ estimate over time compared to the mean $Q_{a_i}^*$ for the second arm.}}{11}{figure.14}\protected@file@percent }
\newlabel{fig:arm2}{{14}{11}{The actual $Q_{a_i}$ estimate over time compared to the mean $Q_{a_i}^*$ for the second arm}{figure.14}{}}
\@writefile{lof}{\contentsline {figure}{\numberline {15}{\ignorespaces The actual $Q_{a_i}$ estimate over time compared to the mean $Q_{a_i}^*$ for the third arm.}}{12}{figure.15}\protected@file@percent }
\newlabel{fig:arm3}{{15}{12}{The actual $Q_{a_i}$ estimate over time compared to the mean $Q_{a_i}^*$ for the third arm}{figure.15}{}}
\@writefile{lof}{\contentsline {figure}{\numberline {16}{\ignorespaces The actual $Q_{a_i}$ estimate over time compared to the mean $Q_{a_i}^*$ for the fourth arm.}}{12}{figure.16}\protected@file@percent }
\newlabel{fig:arm4}{{16}{12}{The actual $Q_{a_i}$ estimate over time compared to the mean $Q_{a_i}^*$ for the fourth arm}{figure.16}{}}
\@writefile{toc}{\contentsline {subsubsection}{\numberline {2.2.3}Amount of action selections}{12}{subsubsection.2.2.3}\protected@file@percent }
\@writefile{lof}{\contentsline {figure}{\numberline {17}{\ignorespaces The amount of times the arms have been individually pulled for action selection strategy random.}}{13}{figure.17}\protected@file@percent }
\newlabel{fig:hrandom}{{17}{13}{The amount of times the arms have been individually pulled for action selection strategy random}{figure.17}{}}
\@writefile{lof}{\contentsline {figure}{\numberline {18}{\ignorespaces The amount of times the arms have been individually pulled for action selection strategy greedy with $\epsilon $ = 0.}}{13}{figure.18}\protected@file@percent }
\newlabel{fig:hgreedy0}{{18}{13}{The amount of times the arms have been individually pulled for action selection strategy greedy with $\epsilon $ = 0}{figure.18}{}}
\@writefile{lof}{\contentsline {figure}{\numberline {19}{\ignorespaces The amount of times the arms have been individually pulled for action selection strategy greedy with $\epsilon $ = 0.1.}}{14}{figure.19}\protected@file@percent }
\newlabel{fig:hgreedy01}{{19}{14}{The amount of times the arms have been individually pulled for action selection strategy greedy with $\epsilon $ = 0.1}{figure.19}{}}
\@writefile{lof}{\contentsline {figure}{\numberline {20}{\ignorespaces The amount of times the arms have been individually pulled for action selection strategy greedy with $\epsilon $ = 0.2.}}{14}{figure.20}\protected@file@percent }
\newlabel{fig:hgreedy02}{{20}{14}{The amount of times the arms have been individually pulled for action selection strategy greedy with $\epsilon $ = 0.2}{figure.20}{}}
\@writefile{lof}{\contentsline {figure}{\numberline {21}{\ignorespaces The amount of times the arms have been individually pulled for action selection strategy softmax with $\tau $ = 1.}}{15}{figure.21}\protected@file@percent }
\newlabel{fig:softmax1}{{21}{15}{The amount of times the arms have been individually pulled for action selection strategy softmax with $\tau $ = 1}{figure.21}{}}
\@writefile{lof}{\contentsline {figure}{\numberline {22}{\ignorespaces The amount of times the arms have been individually pulled for action selection strategy softmax with $\tau $ = 0.1.}}{15}{figure.22}\protected@file@percent }
\newlabel{fig:softmax01}{{22}{15}{The amount of times the arms have been individually pulled for action selection strategy softmax with $\tau $ = 0.1}{figure.22}{}}
\@writefile{toc}{\contentsline {subsection}{\numberline {2.3}Exercise 1.3}{15}{subsection.2.3}\protected@file@percent }
\@writefile{toc}{\contentsline {subsubsection}{\numberline {2.3.1}Cumulative reward average over time}{16}{subsubsection.2.3.1}\protected@file@percent }
\@writefile{lof}{\contentsline {figure}{\numberline {23}{\ignorespaces The cumulative reward average over time for the different selection methods.}}{16}{figure.23}\protected@file@percent }
\newlabel{fig:3cumul}{{23}{16}{The cumulative reward average over time for the different selection methods}{figure.23}{}}
\@writefile{toc}{\contentsline {subsubsection}{\numberline {2.3.2}Mean value per arm}{17}{subsubsection.2.3.2}\protected@file@percent }
\@writefile{lof}{\contentsline {figure}{\numberline {24}{\ignorespaces The actual $Q_{a_i}$ estimate over time compared to the mean $Q_{a_i}^*$ for the first arm.}}{17}{figure.24}\protected@file@percent }
\newlabel{fig:3arm1}{{24}{17}{The actual $Q_{a_i}$ estimate over time compared to the mean $Q_{a_i}^*$ for the first arm}{figure.24}{}}
\@writefile{lof}{\contentsline {figure}{\numberline {25}{\ignorespaces The actual $Q_{a_i}$ estimate over time compared to the mean $Q_{a_i}^*$ for the second arm.}}{17}{figure.25}\protected@file@percent }
\newlabel{fig:3arm2}{{25}{17}{The actual $Q_{a_i}$ estimate over time compared to the mean $Q_{a_i}^*$ for the second arm}{figure.25}{}}
\@writefile{lof}{\contentsline {figure}{\numberline {26}{\ignorespaces The actual $Q_{a_i}$ estimate over time compared to the mean $Q_{a_i}^*$ for the third arm.}}{18}{figure.26}\protected@file@percent }
\newlabel{fig:3arm3}{{26}{18}{The actual $Q_{a_i}$ estimate over time compared to the mean $Q_{a_i}^*$ for the third arm}{figure.26}{}}
\@writefile{lof}{\contentsline {figure}{\numberline {27}{\ignorespaces The actual $Q_{a_i}$ estimate over time compared to the mean $Q_{a_i}^*$ for the fourth arm.}}{18}{figure.27}\protected@file@percent }
\newlabel{fig:3arm4}{{27}{18}{The actual $Q_{a_i}$ estimate over time compared to the mean $Q_{a_i}^*$ for the fourth arm}{figure.27}{}}
\@writefile{toc}{\contentsline {subsubsection}{\numberline {2.3.3}Amount of action selections}{19}{subsubsection.2.3.3}\protected@file@percent }
\@writefile{lof}{\contentsline {figure}{\numberline {28}{\ignorespaces The amount of times the arms have been individually pulled for action selection strategy random.}}{19}{figure.28}\protected@file@percent }
\newlabel{fig:3hrandom}{{28}{19}{The amount of times the arms have been individually pulled for action selection strategy random}{figure.28}{}}
\@writefile{lof}{\contentsline {figure}{\numberline {29}{\ignorespaces The amount of times the arms have been individually pulled for action selection strategy greedy with $\epsilon $ = 0.}}{19}{figure.29}\protected@file@percent }
\newlabel{fig:3hgreedy0}{{29}{19}{The amount of times the arms have been individually pulled for action selection strategy greedy with $\epsilon $ = 0}{figure.29}{}}
\@writefile{lof}{\contentsline {figure}{\numberline {30}{\ignorespaces The amount of times the arms have been individually pulled for action selection strategy greedy with $\epsilon $ = 0.1.}}{20}{figure.30}\protected@file@percent }
\newlabel{fig:3hgreedy01}{{30}{20}{The amount of times the arms have been individually pulled for action selection strategy greedy with $\epsilon $ = 0.1}{figure.30}{}}
\@writefile{lof}{\contentsline {figure}{\numberline {31}{\ignorespaces The amount of times the arms have been individually pulled for action selection strategy greedy with $\epsilon $ = 0.2.}}{20}{figure.31}\protected@file@percent }
\newlabel{fig:3hgreedy02}{{31}{20}{The amount of times the arms have been individually pulled for action selection strategy greedy with $\epsilon $ = 0.2}{figure.31}{}}
\@writefile{lof}{\contentsline {figure}{\numberline {32}{\ignorespaces The amount of times the arms have been individually pulled for action selection strategy softmax with $\tau $ = 1.}}{21}{figure.32}\protected@file@percent }
\newlabel{fig:3softmax1}{{32}{21}{The amount of times the arms have been individually pulled for action selection strategy softmax with $\tau $ = 1}{figure.32}{}}
\@writefile{lof}{\contentsline {figure}{\numberline {33}{\ignorespaces The amount of times the arms have been individually pulled for action selection strategy softmax with $\tau $ = 0.1.}}{21}{figure.33}\protected@file@percent }
\newlabel{fig:3softmax01}{{33}{21}{The amount of times the arms have been individually pulled for action selection strategy softmax with $\tau $ = 0.1}{figure.33}{}}
\@writefile{lof}{\contentsline {figure}{\numberline {34}{\ignorespaces The amount of times the arms have been individually pulled for action selection strategy time greedy with $\epsilon (t) = 1/\sqrt  {t}$}}{22}{figure.34}\protected@file@percent }
\newlabel{fig:3htimegreed}{{34}{22}{The amount of times the arms have been individually pulled for action selection strategy time greedy with $\epsilon (t) = 1/\sqrt {t}$}{figure.34}{}}
\@writefile{lof}{\contentsline {figure}{\numberline {35}{\ignorespaces The amount of times the arms have been individually pulled for action selection strategy softmax with $\tau $ = 4 * (1000-t/1000).}}{22}{figure.35}\protected@file@percent }
\newlabel{fig:3hsoftmax01}{{35}{22}{The amount of times the arms have been individually pulled for action selection strategy softmax with $\tau $ = 4 * (1000-t/1000)}{figure.35}{}}
\@writefile{toc}{\contentsline {section}{\numberline {3}Stochastic Reward Game}{22}{section.3}\protected@file@percent }
\@writefile{toc}{\contentsline {subsection}{\numberline {3.1}Case A}{23}{subsection.3.1}\protected@file@percent }
\newlabel{casea}{{3.1}{23}{Case A}{subsection.3.1}{}}
\@writefile{toc}{\contentsline {subsubsection}{\numberline {3.1.1}Average reward per episode}{24}{subsubsection.3.1.1}\protected@file@percent }
\@writefile{lof}{\contentsline {figure}{\numberline {36}{\ignorespaces Case A: the average reward per episode for the action selection strategies Boltzmann and Optimistic Boltzmann with $\tau $ = 1, $\sigma _0$ = $\sigma _1$ = $\sigma $ = 2.}}{24}{figure.36}\protected@file@percent }
\newlabel{fig:average_case_a}{{36}{24}{Case A: the average reward per episode for the action selection strategies Boltzmann and Optimistic Boltzmann with $\tau $ = 1, $\sigma _0$ = $\sigma _1$ = $\sigma $ = 2}{figure.36}{}}
\@writefile{toc}{\contentsline {subsubsection}{\numberline {3.1.2}Emperical joint action distribution: Boltzmann}{24}{subsubsection.3.1.2}\protected@file@percent }
\newlabel{empi1}{{3.1.2}{24}{Emperical joint action distribution: Boltzmann}{subsubsection.3.1.2}{}}
\@writefile{lof}{\contentsline {figure}{\numberline {37}{\ignorespaces Agent 1: a1}}{24}{figure.37}\protected@file@percent }
\@writefile{lof}{\contentsline {figure}{\numberline {38}{\ignorespaces Agent 2: a2}}{24}{figure.38}\protected@file@percent }
\@writefile{lof}{\contentsline {figure}{\numberline {39}{\ignorespaces Agent 3: a3}}{24}{figure.39}\protected@file@percent }
\@writefile{toc}{\contentsline {subsubsection}{\numberline {3.1.3}Emperical joint action distribution: Optimistic Boltzmann}{25}{subsubsection.3.1.3}\protected@file@percent }
\newlabel{empi2}{{3.1.3}{25}{Emperical joint action distribution: Optimistic Boltzmann}{subsubsection.3.1.3}{}}
\@writefile{lof}{\contentsline {figure}{\numberline {40}{\ignorespaces Agent 1: a1}}{25}{figure.40}\protected@file@percent }
\@writefile{lof}{\contentsline {figure}{\numberline {41}{\ignorespaces Agent 2: a2}}{25}{figure.41}\protected@file@percent }
\@writefile{lof}{\contentsline {figure}{\numberline {42}{\ignorespaces Agent 3: a3}}{25}{figure.42}\protected@file@percent }
\@writefile{toc}{\contentsline {subsection}{\numberline {3.2}Case B}{25}{subsection.3.2}\protected@file@percent }
\newlabel{caseb}{{3.2}{25}{Case B}{subsection.3.2}{}}
\@writefile{toc}{\contentsline {subsubsection}{\numberline {3.2.1}Average reward per episode}{26}{subsubsection.3.2.1}\protected@file@percent }
\@writefile{lof}{\contentsline {figure}{\numberline {43}{\ignorespaces The average reward per episode for the action selection strategies Boltzmann and Optimistic Boltzmann with $\tau $ = 1, $\sigma _0$ = $\sigma _1$ = $\sigma $ = 2.}}{26}{figure.43}\protected@file@percent }
\newlabel{fig:average_case_b}{{43}{26}{The average reward per episode for the action selection strategies Boltzmann and Optimistic Boltzmann with $\tau $ = 1, $\sigma _0$ = $\sigma _1$ = $\sigma $ = 2}{figure.43}{}}
\@writefile{toc}{\contentsline {subsubsection}{\numberline {3.2.2}Emperical joint action distribution: Boltzmann}{26}{subsubsection.3.2.2}\protected@file@percent }
\@writefile{lof}{\contentsline {figure}{\numberline {44}{\ignorespaces Agent 1: a1}}{26}{figure.44}\protected@file@percent }
\@writefile{lof}{\contentsline {figure}{\numberline {45}{\ignorespaces Agent 2: a2}}{26}{figure.45}\protected@file@percent }
\@writefile{lof}{\contentsline {figure}{\numberline {46}{\ignorespaces Agent 3: a3}}{26}{figure.46}\protected@file@percent }
\citation{inproceedings}
\@writefile{toc}{\contentsline {subsubsection}{\numberline {3.2.3}Emperical joint action distribution: Optimistic Boltzmann}{27}{subsubsection.3.2.3}\protected@file@percent }
\@writefile{lof}{\contentsline {figure}{\numberline {47}{\ignorespaces Agent 1: a1}}{27}{figure.47}\protected@file@percent }
\@writefile{lof}{\contentsline {figure}{\numberline {48}{\ignorespaces Agent 2: a2}}{27}{figure.48}\protected@file@percent }
\@writefile{lof}{\contentsline {figure}{\numberline {49}{\ignorespaces Agent 3: a3}}{27}{figure.49}\protected@file@percent }
\@writefile{toc}{\contentsline {subsection}{\numberline {3.3}Case C}{27}{subsection.3.3}\protected@file@percent }
\@writefile{toc}{\contentsline {subsubsection}{\numberline {3.3.1}Average reward per episode}{28}{subsubsection.3.3.1}\protected@file@percent }
\@writefile{lof}{\contentsline {figure}{\numberline {50}{\ignorespaces The average reward per episode for the action selection strategies Boltzmann and Optimistic Boltzmann with $\tau $ = 1, $\sigma _0$ = $\sigma _1$ = $\sigma $ = 2.}}{28}{figure.50}\protected@file@percent }
\newlabel{fig:average_case_c}{{50}{28}{The average reward per episode for the action selection strategies Boltzmann and Optimistic Boltzmann with $\tau $ = 1, $\sigma _0$ = $\sigma _1$ = $\sigma $ = 2}{figure.50}{}}
\@writefile{toc}{\contentsline {subsubsection}{\numberline {3.3.2}Emperical joint action distribution: Boltzmann}{28}{subsubsection.3.3.2}\protected@file@percent }
\@writefile{lof}{\contentsline {figure}{\numberline {51}{\ignorespaces Agent 1: a1}}{28}{figure.51}\protected@file@percent }
\@writefile{lof}{\contentsline {figure}{\numberline {52}{\ignorespaces Agent 2: a2}}{28}{figure.52}\protected@file@percent }
\@writefile{lof}{\contentsline {figure}{\numberline {53}{\ignorespaces Agent 3}}{28}{figure.53}\protected@file@percent }
\bibstyle{apacite}
\bibdata{bib.bib}
\bibcite{inproceedings}{\citeauthoryear {Claus\ \BBA{} Boutilier}{Claus\ \BBA{} Boutilier}{{\APACyear {1998}}}}
\APACbibcite{inproceedings}{\citeauthoryear {Claus\ \BBA{} Boutilier}{Claus\ \BBA{} Boutilier}{{\APACyear {1998}}}}
\@writefile{toc}{\contentsline {subsubsection}{\numberline {3.3.3}Emperical joint action distribution: Optimistic Boltzmann}{29}{subsubsection.3.3.3}\protected@file@percent }
\@writefile{lof}{\contentsline {figure}{\numberline {54}{\ignorespaces Agent 1: a1}}{29}{figure.54}\protected@file@percent }
\@writefile{lof}{\contentsline {figure}{\numberline {55}{\ignorespaces Agent 2: a2}}{29}{figure.55}\protected@file@percent }
\@writefile{lof}{\contentsline {figure}{\numberline {56}{\ignorespaces Agent 3: a3}}{29}{figure.56}\protected@file@percent }
\@writefile{toc}{\contentsline {subsection}{\numberline {3.4}Discussion}{29}{subsection.3.4}\protected@file@percent }
\@writefile{toc}{\contentsline {section}{References}{29}{section*.2}\protected@file@percent }
